<?xml version="1.0" standalone="no"?>
<!DOCTYPE svg PUBLIC "-//W3C//DTD SVG 20010904//EN"
 "http://www.w3.org/TR/2001/REC-SVG-20010904/DTD/svg10.dtd">
<svg version="1.0" xmlns="http://www.w3.org/2000/svg"
 width="580.000000pt" height="580.000000pt" viewBox="0 0 580.000000 580.000000"
 preserveAspectRatio="xMidYMid meet">
<metadata>
Created by potrace 1.11, written by Peter Selinger 2001-2013
</metadata>
<g transform="translate(0.000000,580.000000) scale(0.100000,-0.100000)"
fill="#000000" stroke="none">
<path d="M0 2900 l0 -2900 2900 0 2900 0 0 2900 0 2900 -2900 0 -2900 0 0
-2900z m2602 468 c163 -458 300 -832 304 -831 4 1 135 374 290 830 l281 828
454 0 454 0 0 -1295 0 -1295 -308 -3 -309 -2 7 922 c4 508 5 921 2 918 -4 -4
-599 -1616 -669 -1813 l-10 -27 -221 2 -221 3 -326 912 c-179 501 -329 915
-334 920 -5 4 -6 -176 -2 -417 3 -234 7 -648 8 -920 l1 -495 -294 0 -294 0 -3
1285 c-1 707 0 1291 3 1298 3 9 102 12 448 12 l444 0 295 -832z"/>
</g>
</svg>
